{
    "atividade": [
        {
            "id": 1,
            "disciplina": "História",
            "descricao": "Breve descrição do que foi postado",
            "data": "30/08/2021",
            "diaSemana": "Segunda Feira",
            "professor": "Professor",
            "imagem": "../../assets/images/12.libro.jpg",
            "status": "",
            "aula": "Aula 1.1"
        },
        {
            "id": 2,
            "disciplina": "Matemática",
            "descricao": "Breve descrição do que foi postado",
            "data": "30/08/2021",
            "diaSemana": "Segunda Feira",
            "professor": "Professor",
            "imagem": "../../assets/images/matematica.jpg",
            "status": "",
            "aula": "1.2"
        },
        {
            "id": 3,
            "disciplina": "Biologia",
            "descricao": "Breve descrição do que foi postado",
            "data": "30/08/2021",
            "diaSemana": "Segunda Feira",
            "professor": "Professor",
            "imagem": "../../assets/images/biologia.jpg",
            "status": "",
            "aula": "2.1"
        }
    ],
    "atividadeSemana": [
        {
            "id": 1,
            "disciplina": "História",
            "descricao": "Breve descrição do que foi postado",
            "data": "30/08/2021",
            "diaSemana": "Segunda Feira",
            "professor": "Professor",
            "imagem": "../../assets/images/12.libro.jpg",
            "status": "",
            "aula": "Aula 1.1"
        },
        {
            "id": 2,
            "disciplina": "Matemática",
            "descricao": "Breve descrição do que foi postado",
            "data": "30/08/2021",
            "diaSemana": "Segunda Feira",
            "professor": "Professor",
            "imagem": "../../assets/images/matematica.jpg",
            "status": "",
            "aula": "1.2"
        },
        {
            "id": 3,
            "disciplina": "Biologia",
            "descricao": "Breve descrição do que foi postado",
            "data": "30/08/2021",
            "diaSemana": "Segunda Feira",
            "professor": "Professor",
            "imagem": "../../assets/images/biologia.jpg",
            "status": "",
            "aula": "2.1"
        },
        {
            "id": 4,
            "disciplina": "Física",
            "descricao": "Breve descrição do que foi postado",
            "data": "31/08/2021",
            "diaSemana": "Terça Feira",
            "professor": "Professor",
            "imagem": "../../assets/images/12.libro.jpg",
            "status": "",
            "aula": "Aula 1.3"
        }
    ],
    "atividadeProximaSemana": [
        {
            "id": 1,
            "disciplina": "História",
            "descricao": "Breve descrição do que foi postado",
            "data": "06/09/2021",
            "diaSemana": "Segunda Feira",
            "professor": "Professor",
            "imagem": "../../assets/images/12.libro.jpg",
            "status": "",
            "aula": "Aula 1.1"
        },
        {
            "id": 2,
            "disciplina": "Matemática",
            "descricao": "Breve descrição do que foi postado",
            "data": "06/09/2021",
            "diaSemana": "Segunda Feira",
            "professor": "Professor",
            "imagem": "../../assets/images/matematica.jpg",
            "status": "",
            "aula": "1.2"
        },
        {
            "id": 3,
            "disciplina": "Biologia",
            "descricao": "Breve descrição do que foi postado",
            "data": "06/09/2021",
            "diaSemana": "Segunda Feira",
            "professor": "Professor",
            "imagem": "../../assets/images/biologia.jpg",
            "status": "",
            "aula": "2.1"
        },
        {
            "id": 4,
            "disciplina": "Física",
            "descricao": "Breve descrição do que foi postado",
            "data": "07/09/2021",
            "diaSemana": "Terça Feira",
            "professor": "Professor",
            "imagem": "../../assets/images/12.libro.jpg",
            "status": "",
            "aula": "Aula 1.3"
        }
    ],
    "atividadeSemanaAnterior": [
        {
            "id": 1,
            "disciplina": "História",
            "descricao": "Breve descrição do que foi postado",
            "data": "23/08/2021",
            "diaSemana": "Segunda Feira",
            "professor": "Professor",
            "imagem": "../../assets/images/12.libro.jpg",
            "status": "",
            "aula": "Aula 1.1"
        },
        {
            "id": 2,
            "disciplina": "Matemática",
            "descricao": "Breve descrição do que foi postado",
            "data": "23/08/2021",
            "diaSemana": "Segunda Feira",
            "professor": "Professor",
            "imagem": "../../assets/images/matematica.jpg",
            "status": "",
            "aula": "1.2"
        },
        {
            "id": 3,
            "disciplina": "Biologia",
            "descricao": "Breve descrição do que foi postado",
            "data": "23/08/2021",
            "diaSemana": "Segunda Feira",
            "professor": "Professor",
            "imagem": "../../assets/images/biologia.jpg",
            "status": "",
            "aula": "2.1"
        },
        {
            "id": 4,
            "disciplina": "Física",
            "descricao": "Breve descrição do que foi postado",
            "data": "24/08/2021",
            "diaSemana": "Terça Feira",
            "professor": "Professor",
            "imagem": "../../assets/images/12.libro.jpg",
            "status": "",
            "aula": "Aula 1.3"
        }
    ],
    "disciplinas": [
        {
            "id": 1,
            "nome": "Matemática",
            "perfomance": 20,
            "participacao": 60,
            "proficiencia": 40,
            "aula1.1": "Brasil Colônia",
            "aula1.2": "Brasil República",
            "aula1.3": "Era Vargas"
            
        },
        {
            "id": 2,
            "nome": "História",
            "perfomance": 10,
            "participacao": 30,
            "proficiencia": 40,
            "aula1.1": "Funcão Quadratica",
            "aula1.2": "Trigonometria",
            "aula1.3": "Geometria Plana"
            
        },
        {
            "id": 3,
            "nome": "Biologia",
            "perfomance": 50,
            "participacao": 60,
            "proficiencia": 40,
            "aula1.1": "Funcão Quadratica",
            "aula1.2": "Trigonometria",
            "aula1.3": "Geometria Plana"
        }
    ]
}